<svg
   xmlns:dc="http://purl.org/dc/elements/1.1/"
   xmlns:cc="http://creativecommons.org/ns#"
   xmlns:rdf="http://www.w3.org/1999/02/22-rdf-syntax-ns#"
   xmlns:svg="http://www.w3.org/2000/svg"
   xmlns="http://www.w3.org/2000/svg"
   version="1.1"
   width="50"
   viewBox="0 0 50 50.000001"
   height="50"
   id="svg2">
  <defs
     id="defs14" />
  <metadata
     id="metadata7">
    <rdf:RDF>
      <cc:Work
         rdf:about="">
        <dc:format>image/svg+xml</dc:format>
        <dc:type
           rdf:resource="http://purl.org/dc/dcmitype/StillImage" />
        <dc:title></dc:title>
      </cc:Work>
    </rdf:RDF>
  </metadata>
  <rect
     rx="1.9999999"
     y="18"
     x="18"
     height="14"
     width="14"
     id="rect4950"
     style="color:#000000;overflow:visible;fill:#707377;fill-rule:evenodd;stroke-width:1.99999988" />
  <rect
     style="color:#000000;overflow:visible;fill:#ffffff;fill-rule:evenodd;stroke-width:1.71428561"
     id="rect4952"
     width="12"
     height="12"
     x="19"
     y="19"
     rx="1.7142856" />
  <rect
     rx="1.1428572"
     y="21"
     x="21"
     height="8"
     width="8"
     id="colorized"
     style="color:#000000;overflow:visible;fill:#b7b9bb;fill-opacity:1;fill-rule:evenodd;stroke-width:1.14285696" />
</svg>
